<?xml version="1.0" standalone="no"?>
<!DOCTYPE svg PUBLIC "-//W3C//DTD SVG 20010904//EN"
 "http://www.w3.org/TR/2001/REC-SVG-20010904/DTD/svg10.dtd">
<svg version="1.0" xmlns="http://www.w3.org/2000/svg"
 width="136.000000pt" height="143.000000pt" viewBox="0 0 136.000000 143.000000"
 preserveAspectRatio="xMidYMid meet">

<g transform="translate(0.000000,143.000000) scale(0.100000,-0.100000)"
fill="#000000" stroke="none">
<path d="M635 1052 c-32 -11 -51 -25 -68 -52 -16 -24 -24 -27 -149 -38 -78 -7
-137 -17 -144 -24 -6 -7 -66 -140 -133 -294 -132 -308 -138 -332 -102 -418 11
-24 37 -62 58 -83 147 -147 382 -103 466 86 38 85 32 111 -91 390 -61 140
-111 256 -109 257 1 1 47 7 102 12 98 10 100 9 123 -13 13 -13 36 -27 52 -30
37 -8 92 16 109 47 12 24 20 27 103 33 49 4 91 5 94 2 3 -3 -45 -123 -106
-268 -111 -261 -111 -263 -101 -311 21 -97 72 -163 161 -209 67 -35 176 -33
246 3 83 44 136 115 154 208 9 49 8 52 -116 347 -69 164 -131 304 -138 311
-10 10 -38 11 -149 1 -137 -12 -137 -12 -158 10 -19 21 -61 42 -77 40 -4 -1
-16 -4 -27 -7z m45 -88 c11 -12 10 -18 -3 -32 -16 -15 -18 -15 -34 0 -13 14
-14 20 -3 32 7 9 16 16 20 16 4 0 13 -7 20 -16z m427 -292 c45 -108 85 -205
89 -214 6 -17 -7 -18 -176 -18 -145 0 -181 3 -178 13 6 27 173 417 178 417 3
0 42 -89 87 -198z m-714 -74 c48 -112 87 -206 87 -210 0 -5 -81 -8 -181 -8
-168 0 -181 1 -175 18 21 56 172 402 176 402 3 0 45 -91 93 -202z m827 -248
c0 -25 -42 -91 -72 -113 -75 -57 -174 -59 -247 -7 -36 27 -81 92 -81 120 0 6
68 10 200 10 132 0 200 -4 200 -10z m-720 -62 c0 -6 -11 -31 -25 -54 -87 -148
-320 -121 -370 44 l-6 22 200 0 c146 0 201 -3 201 -12z"/>
</g>
</svg>
