City,2000,2001,2002,2003,2004,2005,2006,2007,2008,2009,2010,2011,2012,2013,2014,2015,2016,2017,2018,2019,2020,2021,2022,2023,2024,2025,2026,2027,2028,2029,2030,2031,2032,2033,2034,2035,2036,2037,2038,2039,2040
New York,35.0,40.0,45.0,50.0,55.0,63.0,75.0,77.0,78.0,74.0,69.0,68.0,69.0,70.0,75.0,82.0,89.0,92.0,96.0,101.0,99.0,100.0,107.0,110.0,113.0,114.0,115.0,116.0,116.0,116.0,117.0,118.0,119.0,121.0,122.0,124.0,125.0,126.0,127.0,128.0,129.0
Los Angeles,28.0,30.0,34.0,40.0,47.0,59.0,71.0,75.0,70.0,56.0,54.0,52.0,50.0,54.0,67.0,69.0,75.0,80.0,87.0,91.0,92.0,100.0,113.0,123.0,129.0,134.0,140.0,141.0,141.0,143.0,145.0,147.0,151.0,155.0,160.0,164.0,168.0,173.0,176.0,180.0,183.0
Chicago,61.0,69.0,75.0,81.0,87.0,96.0,106.0,109.0,108.0,95.0,85.0,77.0,71.0,71.0,78.0,81.0,84.0,90.0,93.0,95.0,94.0,100.0,109.0,116.0,121.0,125.0,127.0,128.0,129.0,130.0,131.0,134.0,136.0,139.0,142.0,145.0,147.0,150.0,152.0,154.0,156.0
Houston,52.0,54.0,55.0,57.0,57.0,62.0,63.0,65.0,65.0,62.0,63.0,60.0,58.0,61.0,70.0,79.0,83.0,85.0,87.0,91.0,93.0,100.0,113.0,119.0,122.0,123.0,123.0,127.0,132.0,137.0,140.0,142.0,143.0,145.0,148.0,151.0,155.0,157.0,159.0,160.0,163.0
Phoenix,39.0,42.0,45.0,48.0,51.0,60.0,84.0,86.0,78.0,56.0,46.0,40.0,39.0,50.0,58.0,60.0,65.0,69.0,74.0,80.0,84.0,100.0,130.0,157.0,178.0,188.0,192.0,192.0,191.0,190.0,192.0,194.0,198.0,203.0,207.0,212.0,216.0,220.0,223.0,227.0,230.0
Philadelphia,34.0,37.0,40.0,45.0,52.0,61.0,73.0,78.0,80.0,77.0,75.0,71.0,67.0,66.0,70.0,71.0,73.0,76.0,82.0,89.0,91.0,100.0,106.0,110.0,113.0,114.0,115.0,116.0,117.0,118.0,120.0,123.0,126.0,129.0,132.0,135.0,138.0,141.0,144.0,147.0,150.0
San Antonio,50.0,50.0,50.0,52.0,54.0,59.0,62.0,66.0,69.0,67.0,65.0,64.0,63.0,66.0,69.0,73.0,78.0,82.0,87.0,91.0,94.0,100.0,121.0,143.0,161.0,174.0,181.0,181.0,184.0,190.0,199.0,209.0,220.0,226.0,229.0,231.0,232.0,234.0,239.0,243.0,247.0
San Diego,30.0,36.0,42.0,49.0,57.0,72.0,77.0,75.0,68.0,56.0,56.0,54.0,51.0,56.0,66.0,67.0,72.0,76.0,83.0,87.0,89.0,100.0,124.0,145.0,158.0,169.0,180.0,187.0,190.0,194.0,197.0,200.0,203.0,208.0,212.0,217.0,221.0,227.0,232.0,237.0,242.0
Dallas,40.0,44.0,44.0,46.0,47.0,50.0,51.0,53.0,55.0,51.0,65.0,62.0,57.0,59.0,64.0,68.0,76.0,82.0,87.0,93.0,95.0,100.0,118.0,121.0,123.0,127.0,130.0,134.0,138.0,142.0,146.0,150.0,154.0,157.0,161.0,165.0,169.0,173.0,177.0,181.0,185.0
San Jose,34.0,43.0,44.0,46.0,48.0,57.0,65.0,66.0,64.0,49.0,47.0,46.0,43.0,52.0,61.0,66.0,74.0,78.0,91.0,96.0,92.0,100.0,119.0,123.0,130.0,133.0,144.0,147.0,153.0,157.0,164.0,167.0,172.0,177.0,182.0,186.0,191.0,195.0,200.0,204.0,209.0
Austin,37.0,41.0,43.0,42.0,42.0,44.0,46.0,49.0,52.0,49.0,48.0,47.0,47.0,51.0,59.0,66.0,72.0,75.0,78.0,82.0,86.0,100.0,137.0,169.0,193.0,209.0,216.0,220.0,228.0,237.0,248.0,260.0,269.0,278.0,284.0,291.0,298.0,305.0,312.0,320.0,328.0
Fort Worth,50.0,52.0,51.0,53.0,54.0,58.0,60.0,62.0,62.0,59.0,59.0,57.0,56.0,58.0,62.0,66.0,72.0,78.0,85.0,90.0,92.0,100.0,125.0,151.0,176.0,197.0,213.0,225.0,237.0,250.0,265.0,282.0,299.0,314.0,328.0,341.0,353.0,365.0,377.0,389.0,402.0
Jacksonville,49.0,52.0,57.0,61.0,66.0,75.0,88.0,96.0,92.0,81.0,71.0,63.0,55.0,57.0,64.0,65.0,68.0,73.0,80.0,87.0,90.0,100.0,127.0,149.0,165.0,178.0,185.0,189.0,192.0,196.0,200.0,205.0,211.0,216.0,220.0,224.0,228.0,232.0,235.0,239.0,243.0
Charlotte,49.0,52.0,53.0,54.0,55.0,56.0,59.0,63.0,67.0,63.0,60.0,54.0,51.0,52.0,57.0,60.0,64.0,71.0,77.0,84.0,89.0,100.0,123.0,153.0,180.0,203.0,221.0,237.0,254.0,271.0,288.0,304.0,319.0,333.0,347.0,360.0,372.0,383.0,395.0,405.0,415.0
Indianapolis,42.0,45.0,47.0,49.0,62.0,61.0,64.0,65.0,65.0,62.0,63.0,59.0,56.0,57.0,62.0,66.0,67.0,71.0,77.0,86.0,89.0,100.0,119.0,133.0,142.0,154.0,165.0,169.0,172.0,176.0,177.0,176.0,176.0,178.0,178.0,179.0,181.0,185.0,188.0,192.0,197.0
San Francisco,36.0,45.0,45.0,48.0,51.0,60.0,67.0,65.0,68.0,63.0,57.0,55.0,54.0,63.0,72.0,81.0,93.0,90.0,97.0,102.0,104.0,100.0,110.0,112.0,118.0,121.0,121.0,124.0,129.0,134.0,140.0,144.0,147.0,150.0,153.0,157.0,162.0,167.0,171.0,174.0,177.0
Seattle,34.0,37.0,39.0,41.0,43.0,48.0,56.0,62.0,64.0,56.0,53.0,49.0,46.0,51.0,58.0,61.0,69.0,78.0,90.0,93.0,92.0,100.0,114.0,126.0,131.0,134.0,137.0,142.0,147.0,151.0,155.0,159.0,162.0,166.0,170.0,174.0,178.0,182.0,186.0,189.0,193.0
Denver,38.0,44.0,49.0,50.0,51.0,53.0,55.0,56.0,55.0,51.0,52.0,50.0,50.0,54.0,59.0,65.0,73.0,79.0,86.0,93.0,93.0,100.0,118.0,129.0,130.0,135.0,145.0,153.0,158.0,162.0,168.0,175.0,180.0,185.0,190.0,195.0,200.0,205.0,210.0,215.0,219.0
Washington,33.0,36.0,40.0,46.0,52.0,61.0,72.0,74.0,74.0,71.0,67.0,67.0,65.0,70.0,76.0,79.0,81.0,85.0,88.0,92.0,96.0,100.0,106.0,110.0,112.0,115.0,117.0,119.0,121.0,123.0,125.0,126.0,128.0,130.0,131.0,133.0,135.0,136.0,138.0,139.0,141.0
Boston,32.0,38.0,45.0,49.0,53.0,62.0,66.0,64.0,62.0,60.0,58.0,58.0,58.0,63.0,69.0,76.0,84.0,88.0,94.0,97.0,97.0,100.0,104.0,108.0,113.0,118.0,122.0,127.0,132.0,136.0,141.0,145.0,149.0,154.0,158.0,162.0,167.0,171.0,176.0,180.0,184.0
El Paso,60.0,59.0,58.0,61.0,63.0,69.0,74.0,85.0,89.0,85.0,85.0,83.0,82.0,81.0,82.0,80.0,81.0,84.0,85.0,88.0,91.0,100.0,119.0,133.0,143.0,150.0,154.0,155.0,156.0,155.0,155.0,156.0,157.0,159.0,161.0,164.0,167.0,170.0,172.0,175.0,177.0
Detroit,67.0,73.0,79.0,82.0,88.0,93.0,94.0,94.0,88.0,67.0,52.0,47.0,43.0,40.0,45.0,47.0,50.0,56.0,66.0,80.0,89.0,100.0,112.0,121.0,126.0,132.0,139.0,144.0,148.0,152.0,157.0,161.0,165.0,170.0,174.0,179.0,183.0,188.0,192.0,196.0,201.0
Las Vegas,51.0,53.0,57.0,61.0,69.0,94.0,108.0,111.0,97.0,67.0,50.0,44.0,40.0,45.0,58.0,61.0,65.0,68.0,81.0,91.0,92.0,100.0,128.0,144.0,159.0,179.0,192.0,201.0,213.0,221.0,228.0,236.0,243.0,249.0,257.0,263.0,270.0,278.0,285.0,292.0,300.0
Oklahoma City,30.0,32.0,35.0,38.0,40.0,43.0,47.0,49.0,50.0,48.0,48.0,48.0,50.0,64.0,68.0,71.0,75.0,79.0,87.0,87.0,91.0,100.0,114.0,120.0,124.0,129.0,136.0,144.0,149.0,153.0,158.0,164.0,170.0,175.0,180.0,184.0,190.0,195.0,199.0,204.0,209.0
Portland,36.0,38.0,41.0,45.0,48.0,53.0,61.0,68.0,68.0,64.0,60.0,56.0,54.0,59.0,64.0,69.0,78.0,86.0,89.0,91.0,91.0,100.0,113.0,122.0,127.0,130.0,133.0,136.0,139.0,143.0,147.0,150.0,154.0,157.0,161.0,164.0,168.0,171.0,175.0,178.0,182.0
Memphis,84.0,86.0,87.0,87.0,88.0,90.0,93.0,94.0,89.0,76.0,68.0,63.0,59.0,57.0,62.0,62.0,64.0,67.0,74.0,81.0,87.0,100.0,122.0,140.0,153.0,168.0,185.0,197.0,204.0,212.0,220.0,224.0,227.0,229.0,232.0,233.0,233.0,235.0,236.0,237.0,238.0
Milwaukee,60.0,64.0,70.0,74.0,81.0,90.0,99.0,101.0,100.0,89.0,83.0,75.0,66.0,64.0,67.0,68.0,70.0,74.0,77.0,83.0,88.0,100.0,112.0,121.0,127.0,130.0,130.0,129.0,126.0,123.0,121.0,120.0,120.0,122.0,125.0,128.0,131.0,134.0,136.0,138.0,140.0
Baltimore,58.0,60.0,63.0,69.0,74.0,87.0,104.0,118.0,120.0,114.0,102.0,93.0,83.0,86.0,91.0,91.0,92.0,94.0,93.0,98.0,94.0,100.0,115.0,125.0,130.0,130.0,129.0,128.0,128.0,130.0,132.0,135.0,138.0,139.0,141.0,142.0,144.0,145.0,147.0,149.0,151.0
Albuquerque,60.0,62.0,63.0,60.0,62.0,66.0,74.0,85.0,88.0,81.0,79.0,75.0,73.0,73.0,77.0,78.0,77.0,80.0,82.0,85.0,90.0,100.0,118.0,135.0,144.0,150.0,153.0,157.0,162.0,169.0,176.0,181.0,184.0,186.0,189.0,191.0,193.0,196.0,199.0,200.0,202.0
Tucson,44.0,47.0,50.0,54.0,59.0,69.0,88.0,92.0,88.0,76.0,68.0,62.0,53.0,58.0,63.0,64.0,65.0,70.0,76.0,81.0,86.0,100.0,123.0,142.0,157.0,166.0,172.0,174.0,176.0,176.0,177.0,177.0,178.0,179.0,180.0,182.0,184.0,186.0,187.0,189.0,191.0
Fresno,38.0,39.0,43.0,51.0,64.0,82.0,104.0,107.0,93.0,65.0,55.0,53.0,46.0,52.0,62.0,65.0,68.0,73.0,79.0,85.0,89.0,100.0,122.0,141.0,157.0,170.0,178.0,179.0,178.0,176.0,173.0,170.0,170.0,172.0,175.0,180.0,185.0,190.0,195.0,200.0,204.0
Mesa,40.0,42.0,45.0,48.0,51.0,59.0,85.0,87.0,79.0,57.0,50.0,44.0,42.0,52.0,60.0,62.0,66.0,69.0,74.0,80.0,85.0,100.0,129.0,155.0,175.0,184.0,187.0,184.0,179.0,175.0,172.0,172.0,175.0,179.0,185.0,190.0,195.0,199.0,203.0,205.0,208.0
Sacramento,31.0,35.0,41.0,50.0,60.0,76.0,89.0,83.0,71.0,53.0,48.0,45.0,40.0,45.0,59.0,60.0,66.0,73.0,81.0,84.0,89.0,100.0,118.0,135.0,147.0,156.0,163.0,166.0,167.0,169.0,170.0,173.0,177.0,181.0,187.0,192.0,198.0,204.0,209.0,214.0,219.0
Atlanta,63.0,70.0,75.0,78.0,78.0,82.0,87.0,89.0,88.0,79.0,69.0,65.0,62.0,63.0,67.0,69.0,74.0,76.0,83.0,91.0,94.0,100.0,119.0,134.0,144.0,153.0,160.0,165.0,168.0,171.0,173.0,175.0,178.0,180.0,182.0,185.0,188.0,191.0,193.0,196.0,199.0
Kansas City,48.0,54.0,59.0,63.0,67.0,69.0,72.0,74.0,73.0,69.0,67.0,63.0,58.0,58.0,61.0,65.0,67.0,74.0,81.0,87.0,88.0,100.0,116.0,130.0,143.0,156.0,167.0,174.0,181.0,186.0,189.0,192.0,194.0,195.0,197.0,198.0,200.0,202.0,204.0,206.0,209.0
Colorado Springs,42.0,45.0,49.0,50.0,52.0,54.0,57.0,59.0,66.0,62.0,62.0,60.0,58.0,60.0,63.0,64.0,67.0,72.0,78.0,84.0,89.0,100.0,125.0,153.0,174.0,188.0,204.0,222.0,238.0,250.0,259.0,269.0,279.0,288.0,296.0,303.0,311.0,319.0,327.0,334.0,341.0
Omaha,60.0,65.0,61.0,63.0,66.0,70.0,73.0,75.0,73.0,66.0,71.0,67.0,67.0,71.0,73.0,76.0,80.0,82.0,88.0,87.0,95.0,100.0,116.0,121.0,127.0,127.0,136.0,143.0,151.0,153.0,158.0,163.0,170.0,174.0,179.0,182.0,188.0,192.0,197.0,201.0,205.0
Raleigh,48.0,50.0,51.0,53.0,55.0,57.0,61.0,66.0,69.0,67.0,65.0,63.0,59.0,61.0,66.0,68.0,73.0,77.0,83.0,89.0,91.0,100.0,127.0,159.0,181.0,196.0,207.0,216.0,225.0,234.0,242.0,250.0,256.0,261.0,265.0,269.0,273.0,276.0,278.0,281.0,283.0
Miami,32.0,36.0,42.0,49.0,57.0,69.0,85.0,97.0,89.0,66.0,55.0,52.0,51.0,59.0,71.0,80.0,86.0,90.0,91.0,95.0,94.0,100.0,122.0,146.0,157.0,162.0,162.0,158.0,155.0,157.0,161.0,168.0,175.0,182.0,187.0,191.0,194.0,197.0,200.0,204.0,209.0
Long Beach,31.0,34.0,38.0,46.0,55.0,69.0,81.0,84.0,77.0,63.0,62.0,59.0,56.0,60.0,71.0,73.0,76.0,82.0,87.0,90.0,92.0,100.0,116.0,133.0,145.0,154.0,160.0,160.0,157.0,154.0,153.0,153.0,155.0,160.0,167.0,174.0,181.0,188.0,193.0,197.0,200.0
Virginia Beach,47.0,51.0,54.0,57.0,65.0,82.0,102.0,106.0,107.0,98.0,92.0,86.0,82.0,82.0,84.0,84.0,87.0,87.0,89.0,91.0,93.0,100.0,116.0,129.0,145.0,153.0,162.0,165.0,171.0,174.0,182.0,185.0,192.0,195.0,200.0,202.0,206.0,208.0,212.0,213.0,217.0
Minneapolis,41.0,48.0,57.0,63.0,69.0,75.0,80.0,80.0,76.0,68.0,66.0,62.0,56.0,61.0,67.0,70.0,75.0,79.0,86.0,91.0,94.0,100.0,105.0,110.0,114.0,118.0,122.0,126.0,129.0,133.0,137.0,140.0,144.0,148.0,151.0,155.0,159.0,162.0,166.0,170.0,173.0
Oakland,25.0,32.0,37.0,42.0,46.0,55.0,63.0,64.0,58.0,46.0,45.0,42.0,39.0,45.0,56.0,60.0,71.0,77.0,86.0,89.0,92.0,100.0,115.0,125.0,127.0,132.0,142.0,147.0,150.0,154.0,161.0,166.0,170.0,174.0,180.0,185.0,189.0,194.0,199.0,204.0,209.0
Tampa,35.0,39.0,43.0,48.0,54.0,63.0,78.0,85.0,78.0,62.0,52.0,48.0,46.0,51.0,59.0,64.0,68.0,75.0,81.0,87.0,91.0,100.0,131.0,160.0,183.0,201.0,211.0,215.0,217.0,220.0,223.0,228.0,233.0,238.0,243.0,247.0,250.0,254.0,257.0,260.0,264.0
Tulsa,66.0,70.0,72.0,75.0,75.0,78.0,80.0,82.0,83.0,83.0,82.0,81.0,78.0,79.0,82.0,84.0,83.0,86.0,89.0,91.0,92.0,100.0,115.0,123.0,129.0,137.0,146.0,152.0,154.0,157.0,160.0,162.0,162.0,161.0,162.0,162.0,162.0,161.0,161.0,162.0,162.0
Arlington,35.0,39.0,45.0,51.0,59.0,69.0,81.0,79.0,78.0,74.0,73.0,73.0,72.0,74.0,81.0,81.0,82.0,84.0,85.0,89.0,94.0,100.0,105.0,109.0,113.0,116.0,119.0,122.0,126.0,129.0,132.0,136.0,139.0,142.0,146.0,149.0,153.0,156.0,159.0,163.0,166.0
Wichita,65.0,67.0,68.0,69.0,68.0,77.0,77.0,79.0,80.0,80.0,81.0,78.0,73.0,72.0,71.0,72.0,74.0,77.0,80.0,83.0,87.0,100.0,113.0,122.0,131.0,141.0,148.0,155.0,161.0,166.0,170.0,174.0,177.0,180.0,183.0,185.0,187.0,189.0,191.0,193.0,195.0
New Orleans,57.0,60.0,64.0,68.0,73.0,80.0,87.0,80.0,82.0,85.0,83.0,74.0,73.0,78.0,83.0,86.0,93.0,93.0,92.0,92.0,97.0,100.0,111.0,119.0,121.0,123.0,125.0,125.0,125.0,125.0,125.0,125.0,125.0,125.0,126.0,126.0,126.0,126.0,126.0,127.0,127.0
Bakersfield,42.0,42.0,45.0,51.0,61.0,81.0,105.0,112.0,97.0,68.0,60.0,58.0,55.0,62.0,78.0,80.0,80.0,81.0,83.0,87.0,89.0,100.0,121.0,144.0,160.0,169.0,171.0,167.0,160.0,154.0,151.0,152.0,157.0,164.0,172.0,180.0,186.0,191.0,193.0,194.0,195.0
Cleveland,90.0,93.0,99.0,101.0,109.0,115.0,122.0,122.0,111.0,89.0,78.0,70.0,64.0,59.0,62.0,61.0,61.0,65.0,75.0,85.0,88.0,100.0,117.0,133.0,145.0,154.0,164.0,171.0,175.0,175.0,175.0,174.0,173.0,169.0,167.0,166.0,165.0,164.0,165.0,166.0,169.0
Anaheim,33.0,38.0,42.0,50.0,61.0,78.0,92.0,94.0,83.0,61.0,60.0,58.0,56.0,61.0,70.0,72.0,77.0,81.0,86.0,89.0,91.0,100.0,123.0,145.0,156.0,164.0,170.0,170.0,167.0,166.0,166.0,168.0,171.0,176.0,182.0,187.0,192.0,197.0,200.0,204.0,207.0
Santa Ana,31.0,36.0,41.0,50.0,61.0,78.0,93.0,98.0,87.0,60.0,57.0,56.0,54.0,60.0,69.0,70.0,75.0,80.0,85.0,89.0,91.0,100.0,121.0,145.0,159.0,170.0,176.0,177.0,177.0,180.0,183.0,188.0,194.0,201.0,207.0,214.0,219.0,225.0,230.0,235.0,240.0
Riverside,33.0,37.0,41.0,47.0,57.0,77.0,92.0,99.0,86.0,58.0,50.0,49.0,47.0,52.0,65.0,69.0,73.0,76.0,82.0,87.0,90.0,100.0,125.0,157.0,183.0,204.0,215.0,215.0,211.0,205.0,199.0,197.0,198.0,202.0,207.0,213.0,218.0,222.0,224.0,226.0,227.0
Henderson,51.0,54.0,58.0,62.0,71.0,100.0,110.0,112.0,96.0,69.0,54.0,49.0,44.0,48.0,61.0,65.0,69.0,72.0,82.0,91.0,92.0,100.0,128.0,148.0,163.0,178.0,182.0,182.0,182.0,178.0,176.0,177.0,180.0,185.0,192.0,199.0,206.0,213.0,219.0,223.0,227.0
Corpus Christi,58.0,59.0,61.0,63.0,65.0,67.0,74.0,79.0,81.0,75.0,74.0,72.0,71.0,73.0,75.0,79.0,84.0,87.0,87.0,88.0,92.0,100.0,115.0,126.0,133.0,137.0,141.0,145.0,151.0,158.0,165.0,171.0,175.0,179.0,183.0,187.0,192.0,197.0,201.0,205.0,208.0
Stockton,33.0,38.0,46.0,52.0,60.0,78.0,99.0,100.0,73.0,42.0,40.0,39.0,35.0,39.0,52.0,56.0,62.0,69.0,77.0,85.0,87.0,100.0,124.0,149.0,172.0,191.0,209.0,219.0,224.0,226.0,223.0,217.0,212.0,205.0,201.0,198.0,197.0,199.0,203.0,208.0,216.0
Cincinnati,61.0,64.0,68.0,71.0,75.0,77.0,79.0,80.0,79.0,71.0,69.0,66.0,62.0,62.0,64.0,67.0,71.0,76.0,79.0,84.0,88.0,100.0,112.0,127.0,138.0,148.0,156.0,163.0,169.0,175.0,180.0,184.0,188.0,192.0,195.0,199.0,202.0,204.0,207.0,209.0,212.0
Pittsburgh,39.0,43.0,45.0,48.0,49.0,51.0,52.0,54.0,56.0,55.0,57.0,58.0,56.0,58.0,61.0,66.0,70.0,73.0,79.0,85.0,88.0,100.0,109.0,115.0,123.0,129.0,135.0,141.0,146.0,151.0,156.0,161.0,165.0,170.0,174.0,178.0,183.0,187.0,191.0,195.0,198.0
Greensboro,64.0,67.0,70.0,72.0,73.0,75.0,79.0,80.0,81.0,78.0,75.0,73.0,67.0,68.0,71.0,70.0,71.0,73.0,78.0,84.0,89.0,100.0,121.0,144.0,166.0,183.0,202.0,222.0,243.0,258.0,271.0,282.0,293.0,301.0,308.0,312.0,315.0,317.0,318.0,318.0,317.0
Plano,45.0,46.0,47.0,49.0,50.0,52.0,53.0,54.0,55.0,52.0,53.0,51.0,49.0,52.0,57.0,64.0,73.0,81.0,89.0,93.0,92.0,100.0,128.0,153.0,167.0,172.0,172.0,176.0,187.0,202.0,214.0,221.0,223.0,225.0,230.0,237.0,245.0,252.0,256.0,258.0,261.0
Lincoln,53.0,56.0,58.0,60.0,63.0,65.0,67.0,68.0,67.0,65.0,65.0,64.0,62.0,67.0,67.0,69.0,73.0,77.0,83.0,88.0,91.0,100.0,115.0,130.0,140.0,149.0,157.0,166.0,175.0,185.0,193.0,201.0,209.0,216.0,224.0,231.0,237.0,244.0,250.0,256.0,262.0
Orlando,41.0,45.0,48.0,52.0,57.0,66.0,86.0,95.0,86.0,66.0,55.0,51.0,48.0,54.0,63.0,67.0,72.0,76.0,82.0,90.0,92.0,100.0,123.0,141.0,151.0,162.0,168.0,170.0,174.0,178.0,181.0,186.0,191.0,195.0,199.0,203.0,207.0,210.0,214.0,218.0,222.0
Durham,41.0,44.0,53.0,55.0,56.0,59.0,61.0,62.0,66.0,63.0,62.0,62.0,59.0,60.0,65.0,67.0,70.0,75.0,81.0,88.0,93.0,100.0,131.0,154.0,172.0,195.0,213.0,227.0,241.0,252.0,261.0,269.0,276.0,283.0,289.0,295.0,301.0,306.0,312.0,318.0,324.0
Irvine,35.0,39.0,43.0,50.0,58.0,72.0,80.0,83.0,74.0,65.0,65.0,63.0,64.0,68.0,82.0,82.0,87.0,91.0,94.0,96.0,95.0,100.0,122.0,136.0,148.0,156.0,164.0,167.0,169.0,171.0,173.0,176.0,180.0,185.0,191.0,197.0,204.0,210.0,215.0,220.0,225.0
Newark,49.0,52.0,56.0,62.0,69.0,80.0,93.0,100.0,98.0,90.0,82.0,76.0,70.0,66.0,68.0,70.0,74.0,78.0,80.0,87.0,89.0,100.0,113.0,125.0,135.0,141.0,144.0,145.0,144.0,141.0,139.0,137.0,136.0,135.0,135.0,135.0,136.0,137.0,137.0,138.0,138.0
Chula Vista,33.0,37.0,42.0,50.0,62.0,79.0,86.0,87.0,76.0,55.0,52.0,51.0,51.0,56.0,66.0,69.0,75.0,78.0,83.0,85.0,87.0,100.0,126.0,154.0,175.0,191.0,202.0,207.0,208.0,207.0,205.0,204.0,204.0,205.0,208.0,212.0,217.0,223.0,228.0,233.0,238.0
Fort Wayne,49.0,51.0,53.0,55.0,64.0,67.0,68.0,69.0,68.0,66.0,65.0,65.0,65.0,64.0,66.0,67.0,69.0,73.0,78.0,83.0,89.0,100.0,117.0,133.0,144.0,157.0,172.0,184.0,192.0,200.0,208.0,214.0,217.0,220.0,223.0,225.0,225.0,225.0,226.0,226.0,225.0
Toledo,85.0,92.0,99.0,104.0,106.0,111.0,113.0,114.0,106.0,97.0,88.0,84.0,77.0,70.0,73.0,68.0,74.0,77.0,82.0,83.0,88.0,100.0,117.0,131.0,149.0,162.0,176.0,186.0,195.0,202.0,208.0,213.0,218.0,222.0,226.0,229.0,233.0,237.0,241.0,244.0,248.0
Chandler,35.0,39.0,41.0,45.0,47.0,56.0,82.0,83.0,79.0,59.0,55.0,49.0,48.0,59.0,66.0,67.0,71.0,73.0,77.0,82.0,87.0,100.0,129.0,149.0,167.0,172.0,174.0,174.0,175.0,179.0,184.0,191.0,197.0,203.0,208.0,212.0,217.0,221.0,226.0,231.0,236.0
Laredo,77.0,78.0,79.0,81.0,82.0,83.0,84.0,86.0,87.0,95.0,91.0,89.0,87.0,93.0,92.0,94.0,102.0,98.0,93.0,98.0,104.0,100.0,113.0,111.0,110.0,117.0,117.0,114.0,122.0,123.0,122.0,127.0,130.0,128.0,133.0,136.0,135.0,138.0,141.0,141.0,144.0
Jersey City,36.0,43.0,50.0,57.0,63.0,75.0,92.0,99.0,97.0,86.0,79.0,68.0,60.0,59.0,64.0,70.0,76.0,82.0,91.0,92.0,94.0,100.0,104.0,106.0,107.0,107.0,107.0,107.0,106.0,106.0,105.0,105.0,104.0,104.0,103.0,103.0,102.0,102.0,101.0,100.0,100.0
Scottsdale,46.0,49.0,52.0,57.0,60.0,70.0,94.0,94.0,87.0,66.0,60.0,55.0,56.0,67.0,73.0,74.0,77.0,78.0,80.0,84.0,87.0,100.0,132.0,160.0,179.0,187.0,189.0,184.0,178.0,174.0,172.0,173.0,178.0,184.0,191.0,197.0,202.0,206.0,209.0,212.0,214.0
Lubbock,58.0,61.0,62.0,64.0,65.0,68.0,72.0,77.0,80.0,82.0,83.0,83.0,82.0,82.0,84.0,82.0,78.0,85.0,89.0,93.0,91.0,100.0,118.0,132.0,142.0,155.0,164.0,169.0,177.0,183.0,186.0,192.0,196.0,200.0,205.0,208.0,212.0,216.0,220.0,224.0,228.0
North Las Vegas,38.0,40.0,44.0,45.0,50.0,60.0,77.0,89.0,80.0,51.0,32.0,26.0,23.0,29.0,38.0,44.0,50.0,55.0,69.0,85.0,91.0,100.0,128.0,155.0,180.0,198.0,214.0,229.0,244.0,260.0,274.0,287.0,299.0,308.0,318.0,326.0,334.0,341.0,347.0,353.0,357.0
Reno,41.0,43.0,46.0,50.0,58.0,76.0,90.0,86.0,76.0,58.0,46.0,42.0,37.0,42.0,54.0,58.0,67.0,72.0,79.0,87.0,89.0,100.0,127.0,148.0,167.0,181.0,187.0,189.0,188.0,185.0,182.0,180.0,181.0,184.0,190.0,196.0,203.0,210.0,216.0,222.0,226.0
Buffalo,61.0,61.0,63.0,64.0,63.0,63.0,65.0,69.0,64.0,62.0,59.0,58.0,56.0,57.0,61.0,64.0,69.0,72.0,80.0,85.0,90.0,100.0,116.0,129.0,142.0,153.0,164.0,173.0,181.0,189.0,196.0,202.0,208.0,214.0,218.0,223.0,227.0,231.0,234.0,237.0,240.0
Winston-Salem,67.0,69.0,72.0,73.0,75.0,78.0,80.0,83.0,85.0,84.0,81.0,79.0,75.0,71.0,73.0,72.0,73.0,75.0,80.0,86.0,91.0,100.0,122.0,145.0,167.0,190.0,213.0,234.0,253.0,270.0,285.0,297.0,308.0,316.0,322.0,327.0,331.0,333.0,334.0,335.0,335.0
Chesapeake,46.0,47.0,49.0,53.0,59.0,72.0,91.0,96.0,96.0,91.0,87.0,82.0,78.0,79.0,81.0,83.0,83.0,85.0,87.0,90.0,92.0,100.0,115.0,127.0,141.0,149.0,156.0,157.0,159.0,159.0,159.0,159.0,162.0,164.0,167.0,170.0,174.0,178.0,181.0,184.0,187.0
Norfolk,47.0,49.0,53.0,56.0,65.0,79.0,97.0,106.0,105.0,101.0,95.0,91.0,84.0,83.0,83.0,84.0,83.0,85.0,87.0,90.0,93.0,100.0,114.0,128.0,145.0,158.0,171.0,180.0,187.0,192.0,196.0,198.0,201.0,203.0,205.0,207.0,208.0,209.0,210.0,211.0,212.0
Irving,49.0,51.0,52.0,54.0,55.0,60.0,61.0,62.0,62.0,57.0,58.0,56.0,53.0,56.0,60.0,62.0,68.0,75.0,80.0,89.0,93.0,100.0,119.0,127.0,136.0,148.0,154.0,163.0,171.0,177.0,185.0,191.0,197.0,204.0,210.0,215.0,222.0,227.0,232.0,238.0,243.0
Garland,40.0,43.0,44.0,46.0,51.0,54.0,55.0,61.0,61.0,57.0,59.0,57.0,55.0,57.0,61.0,65.0,72.0,80.0,86.0,92.0,93.0,100.0,124.0,139.0,146.0,160.0,166.0,168.0,180.0,186.0,189.0,199.0,204.0,206.0,215.0,218.0,221.0,229.0,232.0,235.0,242.0
Fremont,30.0,38.0,41.0,44.0,46.0,55.0,63.0,63.0,58.0,51.0,49.0,48.0,45.0,52.0,66.0,70.0,78.0,80.0,89.0,96.0,94.0,100.0,123.0,135.0,135.0,142.0,153.0,155.0,157.0,163.0,168.0,170.0,173.0,178.0,182.0,185.0,189.0,193.0,196.0,200.0,204.0
Spokane,39.0,39.0,40.0,41.0,44.0,48.0,56.0,64.0,66.0,60.0,58.0,54.0,50.0,52.0,51.0,55.0,58.0,63.0,70.0,78.0,86.0,100.0,127.0,158.0,196.0,230.0,262.0,288.0,307.0,321.0,328.0,333.0,335.0,336.0,338.0,342.0,348.0,355.0,365.0,375.0,386.0
Tacoma,37.0,39.0,42.0,42.0,46.0,52.0,62.0,69.0,68.0,62.0,55.0,50.0,43.0,44.0,48.0,52.0,57.0,64.0,73.0,81.0,86.0,100.0,121.0,142.0,160.0,173.0,181.0,187.0,192.0,197.0,201.0,205.0,209.0,213.0,216.0,219.0,222.0,225.0,227.0,230.0,233.0
Baton Rouge,81.0,82.0,83.0,76.0,74.0,80.0,89.0,99.0,101.0,98.0,98.0,93.0,89.0,87.0,90.0,90.0,92.0,93.0,101.0,98.0,95.0,100.0,109.0,111.0,108.0,106.0,109.0,112.0,112.0,110.0,110.0,112.0,113.0,112.0,111.0,111.0,111.0,111.0,110.0,110.0,110.0
San Bernardino,29.0,31.0,34.0,39.0,48.0,65.0,84.0,94.0,85.0,48.0,38.0,39.0,37.0,41.0,54.0,60.0,65.0,70.0,77.0,84.0,88.0,100.0,125.0,148.0,161.0,176.0,184.0,184.0,189.0,194.0,195.0,201.0,208.0,212.0,218.0,225.0,229.0,235.0,241.0,245.0,251.0
Fontana,32.0,35.0,40.0,45.0,56.0,74.0,89.0,95.0,85.0,49.0,43.0,45.0,43.0,46.0,62.0,67.0,71.0,76.0,82.0,86.0,89.0,100.0,124.0,148.0,165.0,181.0,187.0,183.0,179.0,174.0,168.0,168.0,172.0,178.0,187.0,197.0,205.0,212.0,218.0,221.0,223.0
Moreno Valley,32.0,36.0,40.0,46.0,56.0,75.0,92.0,100.0,85.0,47.0,42.0,43.0,42.0,46.0,60.0,65.0,69.0,74.0,80.0,86.0,90.0,100.0,129.0,160.0,182.0,202.0,211.0,209.0,205.0,199.0,192.0,190.0,193.0,197.0,206.0,215.0,224.0,233.0,240.0,245.0,248.0
Des Moines,52.0,55.0,58.0,61.0,65.0,68.0,73.0,77.0,77.0,72.0,68.0,65.0,60.0,62.0,66.0,68.0,73.0,78.0,85.0,89.0,93.0,100.0,116.0,131.0,142.0,151.0,159.0,165.0,169.0,173.0,176.0,178.0,180.0,181.0,182.0,182.0,183.0,183.0,183.0,183.0,183.0
Fayetteville,43.0,49.0,48.0,52.0,55.0,61.0,68.0,73.0,74.0,69.0,69.0,67.0,66.0,71.0,72.0,76.0,77.0,82.0,86.0,91.0,93.0,100.0,123.0,145.0,157.0,163.0,177.0,192.0,202.0,208.0,214.0,223.0,231.0,235.0,239.0,244.0,249.0,253.0,255.0,258.0,262.0
Santa Clarita,37.0,40.0,43.0,51.0,61.0,76.0,90.0,93.0,83.0,63.0,61.0,59.0,54.0,56.0,70.0,72.0,76.0,81.0,87.0,90.0,91.0,100.0,119.0,136.0,145.0,152.0,154.0,149.0,145.0,144.0,143.0,145.0,151.0,157.0,163.0,169.0,173.0,176.0,178.0,179.0,181.0
Oxnard,37.0,43.0,48.0,57.0,71.0,90.0,106.0,106.0,90.0,64.0,60.0,60.0,55.0,58.0,72.0,75.0,80.0,84.0,89.0,93.0,95.0,100.0,120.0,141.0,156.0,171.0,181.0,183.0,183.0,182.0,179.0,177.0,178.0,181.0,186.0,193.0,200.0,208.0,214.0,219.0,224.0
Birmingham,103.0,102.0,95.0,95.0,100.0,105.0,114.0,120.0,117.0,104.0,93.0,82.0,77.0,74.0,74.0,77.0,76.0,77.0,79.0,85.0,88.0,100.0,121.0,145.0,167.0,188.0,207.0,226.0,245.0,263.0,282.0,300.0,317.0,335.0,352.0,369.0,385.0,401.0,417.0,433.0,448.0
Salt Lake City,40.0,42.0,43.0,42.0,43.0,44.0,47.0,56.0,63.0,57.0,52.0,50.0,48.0,52.0,58.0,60.0,65.0,70.0,76.0,83.0,88.0,100.0,123.0,145.0,160.0,172.0,184.0,194.0,202.0,208.0,214.0,219.0,223.0,226.0,228.0,231.0,232.0,234.0,235.0,236.0,237.0
Huntsville,83.0,81.0,84.0,88.0,90.0,94.0,78.0,82.0,92.0,96.0,89.0,90.0,70.0,70.0,71.0,72.0,72.0,75.0,78.0,81.0,86.0,100.0,123.0,132.0,139.0,147.0,153.0,158.0,163.0,166.0,170.0,173.0,176.0,179.0,182.0,184.0,187.0,189.0,191.0,194.0,196.0
Tempe,40.0,42.0,46.0,48.0,51.0,59.0,82.0,84.0,78.0,61.0,56.0,49.0,46.0,55.0,63.0,64.0,69.0,72.0,76.0,82.0,87.0,100.0,127.0,151.0,166.0,173.0,178.0,180.0,182.0,183.0,184.0,185.0,187.0,188.0,189.0,191.0,192.0,194.0,195.0,197.0,198.0
Yonkers,45.0,52.0,58.0,67.0,75.0,85.0,95.0,101.0,97.0,90.0,86.0,86.0,80.0,77.0,78.0,81.0,81.0,83.0,89.0,91.0,94.0,100.0,109.0,116.0,120.0,122.0,123.0,123.0,122.0,121.0,120.0,120.0,120.0,121.0,121.0,123.0,124.0,125.0,125.0,126.0,127.0
Grand Rapids,48.0,51.0,54.0,56.0,61.0,64.0,66.0,65.0,63.0,56.0,53.0,48.0,46.0,48.0,53.0,55.0,61.0,66.0,75.0,84.0,90.0,100.0,116.0,129.0,137.0,147.0,157.0,166.0,173.0,180.0,187.0,193.0,199.0,204.0,210.0,214.0,219.0,223.0,227.0,231.0,234.0
Huntington Beach,37.0,39.0,43.0,50.0,60.0,74.0,85.0,88.0,83.0,76.0,72.0,69.0,68.0,73.0,82.0,81.0,84.0,86.0,93.0,93.0,92.0,100.0,133.0,164.0,178.0,178.0,182.0,190.0,192.0,184.0,175.0,172.0,174.0,174.0,171.0,170.0,174.0,179.0,182.0,182.0,184.0
Little Rock,66.0,69.0,72.0,74.0,80.0,86.0,92.0,96.0,96.0,96.0,96.0,92.0,87.0,89.0,89.0,91.0,93.0,92.0,97.0,99.0,100.0,100.0,111.0,118.0,124.0,130.0,135.0,140.0,144.0,147.0,150.0,153.0,155.0,157.0,159.0,160.0,161.0,162.0,163.0,164.0,164.0
Abilene,38.0,41.0,44.0,47.0,50.0,53.0,55.0,58.0,61.0,74.0,72.0,72.0,69.0,71.0,75.0,78.0,80.0,84.0,86.0,90.0,93.0,100.0,118.0,127.0,131.0,133.0,138.0,143.0,146.0,149.0,153.0,157.0,160.0,164.0,168.0,172.0,175.0,179.0,183.0,187.0,190.0
Akron,94.0,99.0,100.0,102.0,105.0,108.0,112.0,114.0,105.0,91.0,84.0,78.0,72.0,72.0,75.0,70.0,70.0,72.0,77.0,84.0,89.0,100.0,117.0,134.0,150.0,163.0,174.0,183.0,189.0,193.0,196.0,197.0,198.0,198.0,198.0,198.0,198.0,198.0,198.0,198.0,198.0
Alameda,28.0,35.0,38.0,42.0,46.0,54.0,59.0,59.0,56.0,50.0,50.0,47.0,44.0,51.0,62.0,65.0,74.0,79.0,87.0,90.0,95.0,100.0,120.0,134.0,136.0,138.0,149.0,157.0,158.0,158.0,164.0,170.0,171.0,172.0,176.0,181.0,184.0,185.0,188.0,193.0,196.0
Albany,38.0,44.0,47.0,51.0,57.0,64.0,72.0,71.0,64.0,60.0,59.0,56.0,53.0,58.0,66.0,68.0,76.0,79.0,88.0,90.0,92.0,100.0,118.0,125.0,137.0,143.0,152.0,156.0,163.0,166.0,171.0,174.0,178.0,180.0,183.0,185.0,187.0,189.0,191.0,192.0,194.0
Alexandria,25.0,29.0,35.0,43.0,51.0,65.0,80.0,77.0,71.0,65.0,63.0,65.0,76.0,78.0,83.0,84.0,84.0,85.0,89.0,89.0,94.0,100.0,105.0,106.0,106.0,105.0,105.0,105.0,105.0,105.0,104.0,104.0,104.0,104.0,103.0,103.0,103.0,102.0,102.0,102.0,101.0
Allentown,55.0,56.0,58.0,62.0,68.0,76.0,89.0,99.0,100.0,93.0,86.0,81.0,73.0,68.0,69.0,68.0,70.0,74.0,79.0,86.0,90.0,100.0,120.0,136.0,152.0,165.0,174.0,181.0,184.0,186.0,187.0,187.0,187.0,187.0,188.0,190.0,191.0,194.0,196.0,198.0,201.0
Ames,36.0,39.0,43.0,46.0,49.0,52.0,55.0,59.0,62.0,65.0,72.0,73.0,73.0,75.0,79.0,81.0,88.0,91.0,95.0,94.0,96.0,100.0,115.0,124.0,129.0,131.0,138.0,146.0,152.0,156.0,160.0,164.0,169.0,174.0,177.0,180.0,184.0,187.0,190.0,193.0,196.0
Ann Arbor,63.0,69.0,74.0,78.0,81.0,81.0,83.0,79.0,70.0,65.0,64.0,68.0,67.0,71.0,81.0,85.0,90.0,91.0,94.0,97.0,96.0,100.0,112.0,115.0,117.0,123.0,126.0,130.0,134.0,137.0,140.0,144.0,146.0,149.0,152.0,155.0,157.0,160.0,162.0,164.0,166.0
Apopka,49.0,51.0,54.0,58.0,63.0,72.0,94.0,110.0,101.0,74.0,52.0,42.0,36.0,41.0,49.0,54.0,59.0,68.0,78.0,88.0,93.0,100.0,125.0,150.0,163.0,166.0,169.0,170.0,170.0,171.0,172.0,173.0,174.0,176.0,177.0,179.0,180.0,182.0,183.0,184.0,186.0
Apple Valley,48.0,54.0,61.0,65.0,71.0,75.0,79.0,82.0,79.0,70.0,67.0,63.0,58.0,64.0,70.0,73.0,75.0,80.0,85.0,89.0,93.0,100.0,115.0,125.0,133.0,138.0,144.0,149.0,154.0,158.0,163.0,166.0,170.0,174.0,178.0,182.0,185.0,189.0,193.0,196.0,200.0
Appleton,50.0,52.0,54.0,55.0,57.0,59.0,73.0,73.0,72.0,71.0,69.0,66.0,63.0,64.0,66.0,66.0,69.0,73.0,79.0,86.0,90.0,100.0,113.0,119.0,128.0,133.0,138.0,142.0,145.0,148.0,150.0,152.0,155.0,157.0,159.0,162.0,164.0,167.0,169.0,172.0,174.0
Arvada,38.0,43.0,47.0,48.0,48.0,49.0,51.0,51.0,51.0,52.0,51.0,50.0,49.0,53.0,57.0,62.0,70.0,77.0,83.0,88.0,90.0,100.0,123.0,148.0,175.0,203.0,228.0,250.0,270.0,286.0,299.0,308.0,315.0,320.0,323.0,326.0,329.0,331.0,335.0,340.0,347.0
Auburn,42.0,45.0,47.0,49.0,51.0,56.0,67.0,75.0,75.0,64.0,57.0,52.0,47.0,49.0,56.0,60.0,67.0,73.0,81.0,84.0,88.0,100.0,124.0,149.0,167.0,178.0,186.0,194.0,204.0,214.0,223.0,230.0,236.0,240.0,245.0,249.0,253.0,256.0,259.0,261.0,262.0
Aurora,42.0,48.0,53.0,54.0,56.0,58.0,60.0,61.0,58.0,53.0,51.0,50.0,47.0,52.0,57.0,62.0,71.0,78.0,84.0,90.0,92.0,100.0,123.0,136.0,142.0,148.0,157.0,166.0,173.0,178.0,184.0,190.0,196.0,201.0,206.0,210.0,215.0,219.0,224.0,228.0,232.0
Avondale,42.0,44.0,46.0,50.0,53.0,63.0,90.0,90.0,79.0,50.0,40.0,36.0,35.0,47.0,54.0,57.0,61.0,66.0,72.0,78.0,84.0,100.0,134.0,160.0,181.0,188.0,191.0,193.0,198.0,206.0,214.0,221.0,226.0,230.0,234.0,238.0,242.0,248.0,252.0,257.0,261.0
Bartlett,66.0,67.0,69.0,69.0,70.0,73.0,75.0,77.0,76.0,70.0,67.0,65.0,63.0,62.0,68.0,68.0,70.0,73.0,78.0,84.0,89.0,100.0,119.0,134.0,144.0,157.0,171.0,181.0,189.0,197.0,205.0,210.0,215.0,219.0,224.0,227.0,230.0,233.0,235.0,238.0,240.0
Beaverton,40.0,41.0,43.0,45.0,47.0,52.0,64.0,70.0,70.0,62.0,58.0,55.0,50.0,54.0,63.0,66.0,74.0,82.0,86.0,90.0,91.0,100.0,121.0,137.0,144.0,145.0,146.0,147.0,149.0,152.0,155.0,159.0,162.0,165.0,168.0,172.0,175.0,178.0,181.0,184.0,187.0
Bellevue,29.0,32.0,33.0,34.0,36.0,40.0,49.0,56.0,59.0,52.0,47.0,43.0,41.0,46.0,53.0,58.0,64.0,73.0,85.0,90.0,90.0,100.0,124.0,153.0,173.0,179.0,181.0,188.0,200.0,209.0,209.0,204.0,203.0,208.0,214.0,216.0,214.0,213.0,217.0,222.0,227.0
Bellingham,27.0,31.0,31.0,35.0,40.0,50.0,58.0,62.0,62.0,59.0,56.0,54.0,51.0,54.0,56.0,58.0,62.0,68.0,76.0,85.0,90.0,100.0,125.0,150.0,172.0,193.0,213.0,230.0,244.0,257.0,266.0,275.0,281.0,287.0,291.0,295.0,298.0,301.0,304.0,306.0,309.0
Billings,42.0,45.0,47.0,50.0,53.0,56.0,59.0,61.0,64.0,72.0,72.0,73.0,72.0,76.0,80.0,85.0,86.0,86.0,88.0,92.0,94.0,100.0,115.0,120.0,121.0,125.0,135.0,139.0,141.0,145.0,152.0,156.0,158.0,162.0,167.0,171.0,173.0,176.0,180.0,183.0,186.0
Biloxi,36.0,39.0,42.0,46.0,49.0,52.0,55.0,58.0,61.0,64.0,67.0,80.0,77.0,75.0,75.0,79.0,80.0,84.0,88.0,91.0,94.0,100.0,118.0,124.0,125.0,132.0,139.0,142.0,144.0,148.0,151.0,152.0,154.0,156.0,157.0,158.0,160.0,161.0,161.0,162.0,163.0
Bloomington,42.0,44.0,47.0,49.0,54.0,60.0,62.0,62.0,64.0,66.0,66.0,67.0,65.0,66.0,67.0,69.0,71.0,76.0,80.0,86.0,92.0,100.0,114.0,128.0,138.0,148.0,160.0,172.0,181.0,189.0,197.0,206.0,213.0,218.0,224.0,230.0,235.0,239.0,243.0,247.0,250.0
Bridgeport,53.0,54.0,62.0,68.0,75.0,89.0,97.0,102.0,100.0,87.0,75.0,67.0,60.0,59.0,62.0,62.0,62.0,66.0,75.0,81.0,85.0,100.0,119.0,137.0,151.0,160.0,166.0,170.0,172.0,174.0,175.0,176.0,176.0,177.0,177.0,177.0,178.0,178.0,178.0,179.0,179.0
Camden,86.0,88.0,89.0,89.0,96.0,110.0,127.0,140.0,150.0,128.0,118.0,115.0,103.0,98.0,89.0,95.0,87.0,82.0,79.0,82.0,90.0,100.0,121.0,135.0,143.0,145.0,143.0,139.0,134.0,131.0,127.0,125.0,122.0,120.0,117.0,115.0,112.0,110.0,107.0,105.0,102.0
Charleston,44.0,48.0,52.0,56.0,60.0,67.0,80.0,89.0,87.0,82.0,72.0,68.0,65.0,67.0,73.0,77.0,83.0,88.0,94.0,96.0,96.0,100.0,123.0,143.0,155.0,159.0,157.0,153.0,149.0,149.0,151.0,155.0,161.0,166.0,170.0,172.0,174.0,176.0,178.0,180.0,183.0
Charlottesville,39.0,42.0,44.0,48.0,55.0,67.0,79.0,84.0,83.0,79.0,75.0,73.0,73.0,73.0,75.0,77.0,79.0,82.0,86.0,90.0,95.0,100.0,118.0,141.0,162.0,179.0,192.0,203.0,213.0,221.0,229.0,235.0,241.0,246.0,251.0,254.0,257.0,260.0,262.0,263.0,265.0
Chesterfield,69.0,75.0,78.0,82.0,83.0,86.0,88.0,87.0,79.0,66.0,59.0,55.0,55.0,60.0,71.0,76.0,77.0,81.0,87.0,92.0,90.0,100.0,113.0,125.0,132.0,136.0,139.0,140.0,139.0,137.0,136.0,135.0,135.0,135.0,135.0,135.0,136.0,137.0,137.0,138.0,138.0
Columbia,47.0,49.0,51.0,70.0,74.0,78.0,83.0,87.0,88.0,87.0,85.0,82.0,79.0,78.0,79.0,78.0,80.0,84.0,85.0,89.0,92.0,100.0,118.0,121.0,129.0,137.0,134.0,139.0,138.0,133.0,137.0,133.0,132.0,135.0,133.0,136.0,138.0,137.0,141.0,141.0,141.0
Conway,58.0,65.0,62.0,55.0,58.0,65.0,75.0,81.0,84.0,77.0,70.0,64.0,62.0,62.0,66.0,68.0,72.0,73.0,77.0,82.0,89.0,100.0,132.0,169.0,203.0,234.0,260.0,282.0,299.0,312.0,322.0,330.0,335.0,339.0,342.0,344.0,345.0,345.0,345.0,344.0,343.0
Covington,103.0,97.0,101.0,110.0,124.0,126.0,118.0,107.0,107.0,90.0,67.0,61.0,61.0,65.0,79.0,88.0,82.0,87.0,86.0,91.0,94.0,100.0,127.0,142.0,147.0,148.0,147.0,147.0,147.0,147.0,147.0,147.0,147.0,147.0,148.0,148.0,148.0,148.0,148.0,148.0,148.0
East Providence,42.0,45.0,51.0,62.0,74.0,86.0,92.0,89.0,84.0,73.0,71.0,69.0,63.0,61.0,64.0,67.0,68.0,74.0,81.0,84.0,89.0,100.0,117.0,133.0,147.0,157.0,164.0,170.0,173.0,176.0,178.0,178.0,179.0,179.0,179.0,179.0,179.0,179.0,178.0,178.0,178.0
Fargo,44.0,47.0,50.0,53.0,55.0,58.0,61.0,64.0,67.0,77.0,75.0,75.0,72.0,75.0,79.0,84.0,91.0,94.0,96.0,97.0,98.0,100.0,112.0,109.0,114.0,112.0,119.0,120.0,125.0,126.0,130.0,132.0,136.0,138.0,141.0,144.0,147.0,149.0,152.0,155.0,158.0
Logan,24.0,27.0,31.0,34.0,37.0,40.0,55.0,58.0,61.0,60.0,58.0,58.0,52.0,54.0,58.0,57.0,62.0,68.0,74.0,82.0,89.0,100.0,135.0,162.0,187.0,210.0,231.0,251.0,269.0,285.0,300.0,314.0,327.0,338.0,348.0,358.0,366.0,374.0,381.0,387.0,392.0
Manchester,48.0,53.0,62.0,72.0,81.0,90.0,97.0,95.0,91.0,80.0,80.0,78.0,69.0,68.0,72.0,72.0,75.0,77.0,81.0,85.0,89.0,100.0,119.0,135.0,148.0,159.0,168.0,176.0,183.0,188.0,193.0,197.0,200.0,203.0,206.0,208.0,209.0,211.0,212.0,213.0,214.0
Midwest City,53.0,56.0,58.0,59.0,62.0,65.0,68.0,73.0,77.0,75.0,75.0,76.0,74.0,75.0,76.0,77.0,78.0,80.0,84.0,86.0,91.0,100.0,118.0,132.0,142.0,153.0,162.0,168.0,173.0,179.0,183.0,186.0,189.0,192.0,195.0,197.0,199.0,201.0,203.0,205.0,207.0
Nampa,0.0,0.0,0.0,4.0,8.0,13.0,34.0,40.0,46.0,40.0,33.0,25.0,23.0,29.0,35.0,39.0,43.0,50.0,56.0,67.0,77.0,100.0,133.0,165.0,190.0,208.0,219.0,225.0,228.0,229.0,231.0,233.0,237.0,242.0,247.0,253.0,260.0,266.0,272.0,278.0,284.0
Olathe,55.0,56.0,61.0,62.0,65.0,66.0,69.0,73.0,75.0,74.0,73.0,68.0,65.0,64.0,67.0,66.0,71.0,76.0,82.0,88.0,89.0,100.0,118.0,132.0,140.0,149.0,158.0,166.0,173.0,180.0,186.0,191.0,196.0,201.0,206.0,210.0,214.0,218.0,221.0,225.0,228.0
Sioux Falls,35.0,38.0,41.0,44.0,47.0,50.0,53.0,66.0,67.0,68.0,66.0,65.0,64.0,67.0,70.0,72.0,74.0,82.0,88.0,92.0,94.0,100.0,121.0,134.0,144.0,151.0,162.0,172.0,182.0,190.0,199.0,207.0,216.0,224.0,232.0,240.0,248.0,256.0,263.0,271.0,279.0
