,Year,Price,State,Region,Population,Unemployment,GDP,B_Perm,Int_rate
0,2000,163958.06896551725,Alaska,West,260816.0,,205960.65,1356.1470588235316,9.233333333
1,2001,172096.38709677418,Alaska,West,264274.0,,206441.7058823529,1326.0147058823568,6.921666667
2,2002,204554.03125,Alaska,West,268229.0,,206922.76176470588,1295.882352941182,4.675
3,2003,221910.0,Alaska,West,270568.0,,207403.81764705875,1265.75,4.1225
4,2004,243880.5555555556,Alaska,West,274484.0,,207884.8735294117,2042.0,4.34
5,2005,265005.4166666667,Alaska,West,276494.0,,182628.2,1899.0,6.189166667
6,2006,293572.0,Alaska,West,280085.0,,196760.7,1588.0,7.9575
7,2007,313829.8888888889,Alaska,West,278792.0,,206883.8,970.0,8.05
8,2008,325051.1111111111,Alaska,West,281554.0,,205008.3,460.0,5.0875
9,2009,325338.5,Alaska,West,287677.0,,224860.5,551.0,3.25
10,2010,323879.0555555556,Alaska,West,293227.0,,218406.0,533.0,3.25
11,2011,323543.1666666667,Alaska,West,296693.0,,221121.4,524.0,3.25
12,2012,318699.1666666667,Alaska,West,298806.0,,233134.6,575.0,3.25
13,2013,324527.69444444444,Alaska,West,301801.0,,221417.2,576.0,3.25
14,2014,339315.1388888889,Alaska,West,300647.0,,216752.9,887.0,3.25
15,2015,347868.5,Alaska,West,298337.0,,218963.4,933.0,3.26
16,2016,356497.9166666667,Alaska,West,298072.0,,216986.5,1046.0,3.511666667
17,2017,353128.25,Alaska,West,295118.0,,216518.1,1148.0,4.096666667
18,2018,352395.97222222225,Alaska,West,291377.0,,212998.4,1259.0,4.904166667
19,2019,352719.9166666667,Alaska,West,288790.0,,213345.9,1163.0,5.2825
20,2020,380896.4444444445,Alaska,West,287095.0,,200644.0,753.5,3.544166667
21,2021,386603.77777777775,Alaska,West,303749.4190476192,,201214.5,723.3676470588252,2.986765873223817
22,2022,386603.77777777775,Alaska,West,305419.55670995684,,216543.87941176468,693.2352941176505,2.8224639251835697
23,2023,376628.826561222,Alaska,West,307089.69437229447,,217024.9352941177,663.1029411764757,2.6581619771433225
24,2024,378708.50264039903,Alaska,West,308759.8320346321,,217505.99117647053,632.970588235301,2.4938600291030184
25,2025,373946.147161279,Alaska,West,310429.9696969697,,217987.04705882352,602.8382352941189,2.329558081062771
26,2026,377716.0256150752,Alaska,West,312100.1073593073,,218468.1029411765,572.7058823529442,2.165256133022524
27,2027,375220.65319214656,Alaska,West,313770.245021645,,218949.15882352935,542.5735294117694,2.0009541849822767
28,2028,378770.6961262364,Alaska,West,315440.3826839831,,219430.2147058824,512.4411764705947,1.8366522369419729
29,2029,377390.4935372965,Alaska,West,317110.5203463207,,219911.27058823523,482.3088235294126,1.6723502889017254
30,2030,380676.1596964728,Alaska,West,318780.6580086583,,220392.32647058825,452.17647058823786,1.5080483408614782
31,2031,380185.411716791,Alaska,West,320450.79567099595,,220873.3823529412,422.0441176470631,1.343746392821231
32,2032,383261.260286009,Alaska,West,322120.9333333336,,221354.43823529407,391.91176470588834,1.1794444447809838
33,2033,383402.6176940574,Alaska,West,323791.0709956712,,221835.49411764703,361.7794117647063,1.0151424967406797
34,2034,386256.8586424588,Alaska,West,325461.20865800884,,222316.54999999996,331.64705882353155,0.8508405487004325
35,2035,386836.58508365205,Alaska,West,327131.34632034646,,222797.6058823529,301.5147058823568,0.6865386006601852
36,2036,389488.8747199094,Alaska,West,328801.4839826841,,223278.6617647059,271.38235294118203,0.522236652619938
37,2037,390384.5935302682,Alaska,West,330471.6216450217,,223759.7176470588,241.25000000000728,0.3579347045796339
38,2038,392866.6179436915,Alaska,West,332141.75930735935,,224240.77352941176,211.11764705882524,0.1936327565393867
39,2039,393993.4512668173,Alaska,West,333811.896969697,,224721.82941176463,180.98529411765048,0.0293308084991394
40,2040,396335.298066356,Alaska,West,335482.0346320346,,225202.8852941176,150.85294117647572,-0.1349711395411077
41,2041,397632.476836956,Alaska,West,337152.1722943722,,225683.9411764706,120.72058823530097,-0.2992730875813549
42,2042,399861.0441705316,Alaska,West,338822.3099567103,,226164.99705882347,90.58823529411892,-0.463575035621659
43,2043,401284.9521910974,Alaska,West,340492.44761904795,,226646.0529411765,60.45588235294417,-0.6278769836619063
44,2044,403423.2996743295,Alaska,West,342162.5852813856,,227127.10882352944,30.32352941176941,-0.7921789317021535
45,2045,404942.2035724789,Alaska,West,343832.7229437232,,227608.16470588231,0.1911764705946552,-0.9564808797424008
46,2046,406565.6102527651,Alaska,West,345502.8606060608,,228089.2205882353,0.0,-1.1207828277827048
47,2047,407709.5172856924,Alaska,West,347172.99826839846,,228570.27647058817,0.0,-1.285084775822952
48,2048,409274.3328578111,Alaska,West,348843.1359307361,,229051.3323529412,0.0,-1.4493867238631992
49,2049,410472.4652329858,Alaska,West,350513.2735930737,,229532.38823529411,0.0,-1.6136886719034464
50,2050,411993.8127332539,Alaska,West,352183.41125541134,,230013.444117647,0.0,-1.7779906199436937
