,Year,Price,State,Region,Population,Unemployment,GDP,Building Permits,Interest rate
0,2000,111420.0,Connecticut,Northeast,139782.0,,111420.0,,9.2
1,2001,114890.0,Connecticut,Northeast,140466.0,,114890.0,,6.9
2,2002,130377.0,Connecticut,Northeast,141012.0,,130377.0,,4.7
3,2003,144983.0,Connecticut,Northeast,141479.0,,144983.0,,4.1
4,2004,158562.0,Connecticut,Northeast,141570.0,,158562.0,,4.3
5,2005,188574.0,Connecticut,Northeast,141567.0,,188574.0,,6.2
6,2006,205201.0,Connecticut,Northeast,141292.0,,205201.0,,8.0
7,2007,216635.0,Connecticut,Northeast,141386.0,,216635.0,,8.0
8,2008,212709.0,Connecticut,Northeast,142356.0,,212709.0,,5.1
9,2009,183960.0,Connecticut,Northeast,143281.0,,183960.0,,3.2
10,2010,158562.0,Connecticut,Northeast,144522.0,,158562.0,,3.2
11,2011,142672.0,Connecticut,Northeast,146165.0,,142672.0,,3.2
12,2012,127646.0,Connecticut,Northeast,147128.0,,127646.0,,3.2
13,2013,125111.0,Connecticut,Northeast,147759.0,,125111.0,,3.2
14,2014,130611.0,Connecticut,Northeast,147921.0,,130611.0,,3.2
15,2015,132047.0,Connecticut,Northeast,147470.0,,132047.0,,3.3
16,2016,131939.0,Connecticut,Northeast,146404.0,,131939.0,,3.5
17,2017,139050.0,Connecticut,Northeast,145516.0,,139050.0,,4.1
18,2018,157779.0,Connecticut,Northeast,145012.0,,157779.0,,4.9
19,2019,171136.0,Connecticut,Northeast,144556.0,,171136.0,,5.3
20,2020,180083.0,Connecticut,Northeast,143525.0,,180083.0,,3.5
21,2021,211657.0,Connecticut,Northeast,147404.0,,211657.0,,3.0
22,2022,251879.0,Connecticut,Northeast,147731.0,,251879.0,,2.8
23,2023,290432.0,Connecticut,Northeast,148057.0,,290432.0,,2.7
24,2024,319469.0,Connecticut,Northeast,148383.0,,319469.0,,2.5
25,2025,339078.0,Connecticut,Northeast,148709.0,,339078.0,,2.3
26,2026,351816.0,Connecticut,Northeast,149035.0,,351816.0,,2.2
27,2027,359681.0,Connecticut,Northeast,149361.0,,359681.0,,2.0
28,2028,364638.0,Connecticut,Northeast,149687.0,,364638.0,,1.8
29,2029,368033.0,Connecticut,Northeast,150013.0,,368033.0,,1.7
30,2030,370170.0,Connecticut,Northeast,150339.0,,370170.0,,1.5
31,2031,371672.0,Connecticut,Northeast,150665.0,,371672.0,,1.3
32,2032,372993.0,Connecticut,Northeast,150991.0,,372993.0,,1.2
33,2033,373885.0,Connecticut,Northeast,151317.0,,373885.0,,1.0
34,2034,374838.0,Connecticut,Northeast,151643.0,,374838.0,,0.9
35,2035,375510.0,Connecticut,Northeast,151970.0,,375510.0,,0.7
36,2036,376128.0,Connecticut,Northeast,152296.0,,376128.0,,0.5
37,2037,376916.0,Connecticut,Northeast,152622.0,,376916.0,,0.4
38,2038,377486.0,Connecticut,Northeast,152948.0,,377486.0,,0.2
39,2039,378044.0,Connecticut,Northeast,153274.0,,378044.0,,0.0
40,2040,378795.0,Connecticut,Northeast,153600.0,,378795.0,,-0.1
