,Year,Price,State,Region,Population,Unemployment,GDP,Building Permits,Interest rate
0,2000,154337.0,Missouri,Midwest,489272.0,,77168.0,20392.0,9.2
1,2001,170611.0,Missouri,Midwest,490847.0,,85306.0,20096.0,6.9
2,2002,180118.0,Missouri,Midwest,492350.0,,90059.0,19798.0,4.7
3,2003,189360.0,Missouri,Midwest,492707.0,,94680.0,19502.0,4.1
4,2004,195698.0,Missouri,Midwest,492979.0,,97849.0,30116.0,4.3
5,2005,202555.0,Missouri,Midwest,494040.0,,101278.0,30436.0,6.2
6,2006,208460.0,Missouri,Midwest,496727.0,,104230.0,26410.0,8.0
7,2007,209425.0,Missouri,Midwest,499420.0,,104712.0,16258.0,8.0
8,2008,196020.0,Missouri,Midwest,501544.0,,98010.0,10600.0,5.1
9,2009,171810.0,Missouri,Midwest,505253.0,,85905.0,6812.0,3.2
10,2010,160016.0,Missouri,Midwest,508332.0,,80008.0,5428.0,3.2
11,2011,148963.0,Missouri,Midwest,510008.0,,74482.0,6574.0,3.2
12,2012,143061.0,Missouri,Midwest,512355.0,,71530.0,9962.0,3.2
13,2013,151450.0,Missouri,Midwest,515047.0,,75725.0,15064.0,3.2
14,2014,171372.0,Missouri,Midwest,518576.0,,85686.0,16402.0,3.2
15,2015,182212.0,Missouri,Midwest,523134.0,,91106.0,17908.0,3.3
16,2016,186723.0,Missouri,Midwest,529654.0,,93362.0,20778.0,3.5
17,2017,199940.0,Missouri,Midwest,536398.0,,99970.0,19702.0,4.1
18,2018,216448.0,Missouri,Midwest,540348.0,,108224.0,20536.0,4.9
19,2019,230344.0,Missouri,Midwest,543902.0,,115172.0,18694.0,5.3
20,2020,228460.0,Missouri,Midwest,544729.0,,114230.0,14458.0,3.5
21,2021,255712.0,Missouri,Midwest,543430.0,,127856.0,14162.0,3.0
22,2022,292440.0,Missouri,Midwest,546350.0,,146220.0,13864.0,2.8
23,2023,324800.0,Missouri,Midwest,549270.0,,162400.0,13568.0,2.7
24,2024,348175.0,Missouri,Midwest,552189.0,,174088.0,13272.0,2.5
25,2025,369059.0,Missouri,Midwest,555109.0,,184530.0,12974.0,2.3
26,2026,384856.0,Missouri,Midwest,558028.0,,192428.0,12678.0,2.2
27,2027,393296.0,Missouri,Midwest,560948.0,,196648.0,12382.0,2.0
28,2028,398211.0,Missouri,Midwest,563867.0,,199106.0,12084.0,1.8
29,2029,401876.0,Missouri,Midwest,566787.0,,200938.0,11788.0,1.7
30,2030,403574.0,Missouri,Midwest,569707.0,,201787.0,11492.0,1.5
31,2031,404274.0,Missouri,Midwest,572626.0,,202137.0,11194.0,1.3
32,2032,405555.0,Missouri,Midwest,575546.0,,202778.0,10898.0,1.2
33,2033,407168.0,Missouri,Midwest,578465.0,,203584.0,10602.0,1.0
34,2034,408921.0,Missouri,Midwest,581385.0,,204460.0,10304.0,0.9
35,2035,411078.0,Missouri,Midwest,584304.0,,205539.0,10008.0,0.7
36,2036,413822.0,Missouri,Midwest,587223.0,,206911.0,9712.0,0.5
37,2037,416843.0,Missouri,Midwest,590144.0,,208422.0,9414.0,0.4
38,2038,419916.0,Missouri,Midwest,593063.0,,209958.0,9118.0,0.2
39,2039,423272.0,Missouri,Midwest,595983.0,,211636.0,8822.0,0.0
40,2040,426874.0,Missouri,Midwest,598902.0,,213437.0,8524.0,-0.1
