,Year,Price,State,Region,Population,Unemployment,GDP,Building Permits,Interest rate
0,2000,149828.0,North Carolina,South,1699409.0,0.0,24971.0,39906.0,9.2
1,2001,159577.0,North Carolina,South,1731185.0,0.0,26596.0,39432.0,6.9
2,2002,168216.0,North Carolina,South,1757828.0,0.0,28036.0,38957.0,4.7
3,2003,173614.0,North Carolina,South,1780563.0,0.0,28936.0,38479.0,4.1
4,2004,179104.0,North Carolina,South,1809736.0,0.0,29851.0,43763.0,4.3
5,2005,187816.0,North Carolina,South,1846792.0,0.0,31303.0,45865.0,6.2
6,2006,199511.0,North Carolina,South,1903377.0,0.0,33252.0,51228.0,8.0
7,2007,210151.0,North Carolina,South,1956141.0,0.0,35025.0,45715.0,8.0
8,2008,217481.0,North Carolina,South,2004393.0,0.0,36247.0,31561.0,5.1
9,2009,209200.0,North Carolina,South,2043302.0,0.3,34867.0,17448.0,3.2
10,2010,203170.0,North Carolina,South,2071497.0,0.8,33862.0,20046.0,3.2
11,2011,195996.0,North Carolina,South,2118405.0,1.3,32666.0,21169.0,3.2
12,2012,185864.0,North Carolina,South,2157988.0,1.8,30977.0,34494.0,3.2
13,2013,190104.0,North Carolina,South,2198275.0,2.3,31684.0,29647.0,3.2
14,2014,201040.0,North Carolina,South,2233105.0,2.8,33507.0,29641.0,3.2
15,2015,207800.0,North Carolina,South,2270227.0,3.3,34633.0,30834.0,3.3
16,2016,215652.0,North Carolina,South,2312981.0,4.8,35942.0,34387.0,3.5
17,2017,230187.0,North Carolina,South,2344102.0,4.3,38364.0,37759.0,4.1
18,2018,245724.0,North Carolina,South,2372566.0,3.8,40954.0,40536.0,4.9
19,2019,264572.0,North Carolina,South,2400008.0,3.6,44095.0,36985.0,5.3
20,2020,275711.0,North Carolina,South,2418356.0,7.6,45952.0,30406.0,3.5
21,2021,302690.0,North Carolina,South,2491476.0,6.3,50448.0,29929.0,3.0
22,2022,378877.0,North Carolina,South,2529962.0,6.8,63146.0,29454.0,2.8
23,2023,457546.0,North Carolina,South,2568451.0,7.3,76258.0,28984.0,2.7
24,2024,519338.0,North Carolina,South,2606939.0,7.8,86556.0,28716.0,2.5
25,2025,571466.0,North Carolina,South,2645428.0,8.3,95244.0,28448.0,2.3
26,2026,621369.0,North Carolina,South,2683915.0,8.8,103562.0,28177.0,2.2
27,2027,666850.0,North Carolina,South,2722403.0,9.4,111142.0,27909.0,2.0
28,2028,707999.0,North Carolina,South,2760892.0,9.9,118000.0,27641.0,1.8
29,2029,743552.0,North Carolina,South,2799379.0,10.4,123925.0,27373.0,1.7
30,2030,776700.0,North Carolina,South,2837868.0,10.9,129450.0,27106.0,1.5
31,2031,808124.0,North Carolina,South,2876356.0,11.4,134687.0,26838.0,1.3
32,2032,836315.0,North Carolina,South,2914844.0,11.9,139386.0,26567.0,1.2
33,2033,859361.0,North Carolina,South,2953332.0,12.4,143227.0,26299.0,1.0
34,2034,879779.0,North Carolina,South,2991820.0,12.9,146630.0,26031.0,0.9
35,2035,898690.0,North Carolina,South,3030307.0,13.4,149782.0,25763.0,0.7
36,2036,916358.0,North Carolina,South,3068797.0,13.9,152726.0,25495.0,0.5
37,2037,931858.0,North Carolina,South,3107283.0,14.4,155310.0,25228.0,0.4
38,2038,945670.0,North Carolina,South,3145772.0,14.9,157612.0,24957.0,0.2
39,2039,958400.0,North Carolina,South,3184260.0,15.4,159733.0,24689.0,0.0
40,2040,970590.0,North Carolina,South,3222747.0,15.9,161765.0,24421.0,-0.1
