,Year,Price,State,Region,Population,Unemployment,GDP,Building Permits,Interest rate
0,2000,97248.0,Oklahoma,South,953741.0,0.0,32416.0,18097.0,9.2
1,2001,102808.0,Oklahoma,South,957567.0,0.0,34269.0,17858.0,6.9
2,2002,107242.0,Oklahoma,South,963989.0,0.0,35747.0,17618.0,4.7
3,2003,112632.0,Oklahoma,South,966146.0,0.0,37544.0,17379.0,4.1
4,2004,116194.0,Oklahoma,South,967207.0,0.0,38731.0,20979.0,4.3
5,2005,120972.0,Oklahoma,South,973267.0,0.0,40324.0,22039.0,6.2
6,2006,127204.0,Oklahoma,South,983908.0,0.0,42401.0,18921.0,8.0
7,2007,132593.0,Oklahoma,South,993709.0,0.0,44198.0,17153.0,8.0
8,2008,135700.0,Oklahoma,South,1002783.0,0.2,45233.0,12131.0,5.1
9,2009,133344.0,Oklahoma,South,1016901.0,0.6,44448.0,10188.0,3.2
10,2010,133368.0,Oklahoma,South,1029979.0,1.0,44456.0,9377.0,3.2
11,2011,132438.0,Oklahoma,South,1039374.0,1.5,44146.0,10239.0,3.2
12,2012,131657.0,Oklahoma,South,1051903.0,1.9,43886.0,15019.0,3.2
13,2013,144283.0,Oklahoma,South,1067422.0,2.3,48094.0,16845.0,3.2
14,2014,149311.0,Oklahoma,South,1078737.0,2.8,49770.0,18605.0,3.2
15,2015,153352.0,Oklahoma,South,1093081.0,3.2,51117.0,14667.0,3.3
16,2016,157202.0,Oklahoma,South,1101542.0,4.4,52401.0,15738.0,3.5
17,2017,163679.0,Oklahoma,South,1102269.0,4.3,54560.0,13595.0,4.1
18,2018,173791.0,Oklahoma,South,1106215.0,3.4,57930.0,13713.0,4.9
19,2019,175694.0,Oklahoma,South,1114161.0,3.2,58565.0,16295.0,5.3
20,2020,182419.0,Oklahoma,South,1123071.0,7.1,60806.0,13309.0,3.5
21,2021,199487.0,Oklahoma,South,1137278.0,5.8,66496.0,13069.0,3.0
22,2022,229619.0,Oklahoma,South,1146785.0,6.2,76540.0,12830.0,2.8
23,2023,247499.0,Oklahoma,South,1156291.0,6.6,82500.0,12591.0,2.7
24,2024,259402.0,Oklahoma,South,1165796.0,7.1,86467.0,12351.0,2.5
25,2025,273961.0,Oklahoma,South,1175301.0,7.5,91320.0,12112.0,2.3
26,2026,290513.0,Oklahoma,South,1184807.0,7.9,96838.0,11872.0,2.2
27,2027,303827.0,Oklahoma,South,1194313.0,8.3,101276.0,11633.0,2.0
28,2028,312210.0,Oklahoma,South,1203819.0,8.8,104070.0,11394.0,1.8
29,2029,319800.0,Oklahoma,South,1213326.0,9.2,106600.0,11154.0,1.7
30,2030,328404.0,Oklahoma,South,1222832.0,9.6,109468.0,10915.0,1.5
31,2031,336117.0,Oklahoma,South,1232338.0,10.1,112039.0,10675.0,1.3
32,2032,341885.0,Oklahoma,South,1241843.0,10.5,113962.0,10436.0,1.2
33,2033,346651.0,Oklahoma,South,1251349.0,10.9,115550.0,10197.0,1.0
34,2034,351971.0,Oklahoma,South,1260855.0,11.4,117324.0,9957.0,0.9
35,2035,357246.0,Oklahoma,South,1270361.0,11.8,119082.0,9718.0,0.7
36,2036,361945.0,Oklahoma,South,1279867.0,12.2,120648.0,9478.0,0.5
37,2037,366390.0,Oklahoma,South,1289373.0,12.6,122130.0,9240.0,0.4
38,2038,371312.0,Oklahoma,South,1298879.0,13.1,123771.0,8999.0,0.2
39,2039,376397.0,Oklahoma,South,1308385.0,13.5,125466.0,8759.0,0.0
40,2040,381318.0,Oklahoma,South,1317890.0,13.9,127106.0,8520.0,-0.1
