,Year,Price,State,Region,Population,Unemployment,GDP,Building Permits,Interest rate
0,2000,94441.0,South Carolina,South,118247.0,,94441.0,1873.0,9.2
1,2001,98180.0,South Carolina,South,120149.0,,98180.0,1820.0,6.9
2,2002,101985.0,South Carolina,South,119910.0,,101985.0,1767.0,4.7
3,2003,140740.0,South Carolina,South,121512.0,,140740.0,1714.0,4.1
4,2004,149235.0,South Carolina,South,125737.0,,149235.0,2339.0,4.3
5,2005,157348.0,South Carolina,South,123680.0,,157348.0,2329.0,6.2
6,2006,167286.0,South Carolina,South,124737.0,,167286.0,1936.0,8.0
7,2007,175012.0,South Carolina,South,127030.0,,175012.0,1166.0,8.0
8,2008,176752.0,South Carolina,South,128388.0,,176752.0,546.0,5.1
9,2009,175819.0,South Carolina,South,128708.0,,175819.0,632.0,3.2
10,2010,171018.0,South Carolina,South,129622.0,,171018.0,607.0,3.2
11,2011,165716.0,South Carolina,South,131463.0,,165716.0,1052.0,3.2
12,2012,158735.0,South Carolina,South,131949.0,,158735.0,1228.0,3.2
13,2013,156986.0,South Carolina,South,131742.0,,156986.0,1232.0,3.2
14,2014,158858.0,South Carolina,South,132020.0,,158858.0,1414.0,3.2
15,2015,157669.0,South Carolina,South,133875.0,,157669.0,1433.0,3.3
16,2016,161259.0,South Carolina,South,134424.0,,161259.0,1304.0,3.5
17,2017,168836.0,South Carolina,South,134405.0,,168836.0,1634.0,4.1
18,2018,170661.0,South Carolina,South,133162.0,,170661.0,557.0,4.9
19,2019,178840.0,South Carolina,South,132165.0,,178840.0,799.0,5.3
20,2020,185315.0,South Carolina,South,132130.0,,185315.0,812.0,3.5
21,2021,201165.0,South Carolina,South,136900.0,,201165.0,759.0,3.0
22,2022,236485.0,South Carolina,South,137679.0,,236485.0,706.0,2.8
23,2023,243006.0,South Carolina,South,138457.0,,243006.0,653.0,2.7
24,2024,258534.0,South Carolina,South,139236.0,,258534.0,600.0,2.5
25,2025,276455.0,South Carolina,South,140014.0,,276455.0,547.0,2.3
26,2026,269358.0,South Carolina,South,140793.0,,269358.0,494.0,2.2
27,2027,279010.0,South Carolina,South,141571.0,,279010.0,441.0,2.0
28,2028,277435.0,South Carolina,South,142350.0,,277435.0,388.0,1.8
29,2029,268115.0,South Carolina,South,143128.0,,268115.0,335.0,1.7
30,2030,274930.0,South Carolina,South,143907.0,,274930.0,282.0,1.5
31,2031,267030.0,South Carolina,South,144685.0,,267030.0,229.0,1.3
32,2032,266155.0,South Carolina,South,145464.0,,266155.0,176.0,1.2
33,2033,272391.0,South Carolina,South,146243.0,,272391.0,123.0,1.0
34,2034,266935.0,South Carolina,South,147021.0,,266935.0,70.0,0.9
35,2035,273930.0,South Carolina,South,147800.0,,273930.0,17.0,0.7
36,2036,277244.0,South Carolina,South,148578.0,,277244.0,0.0,0.5
37,2037,275482.0,South Carolina,South,149357.0,,275482.0,0.0,0.4
38,2038,283721.0,South Carolina,South,150135.0,,283721.0,0.0,0.2
39,2039,283050.0,South Carolina,South,150914.0,,283050.0,0.0,0.0
40,2040,284503.0,South Carolina,South,151692.0,,284503.0,0.0,-0.1
